{
  "students":[
    {
      "id":1,
      "userName":"UserName1",
      "firstName":"FirstName1",
      "lastName":"LastName",
      "age":100,
      "career":"Career1"
    },
    {
      "id":1,
      "userName":"UserName1",
      "firstName":"FirstName1",
      "lastName":"LastName",
      "age":100,
      "career":"Career1"
    },
    {
      "id":1,
      "userName":"UserName1",
      "firstName":"FirstName1",
      "lastName":"LastName",
      "age":100,
      "career":"Career1"
    },
    {
      "id":1,
      "userName":"UserName1",
      "uirstName":"FirstName1",
      "lastName":"LastName",
      "age":100,
      "career":"Career1"
    },
    {
      "id":1,
      "userName":"UserName1",
      "firstName":"FirstName1",
      "lastName":"LastName",
      "age":100,
      "career":"Career1"
    }
  ],
  "code":"1",
  "description":"Exito!"
}
